my_blog - Exercices - Semaine 3️⃣
…
if (dbIsValid(connexion)) {
  
  nomdelatable <- "olympics_athletes"
  
  table_importee <- dbReadTable(connexion, nomdelatable)
  
  tibbleresultat <- as_tibble(table_importee)
  
  print(tibbleresultat)
  
} else {
  cat("Erreur, la connexion à la base de données a échoué.")
}

# A tibble: 2,427,579 × 13
      ID Name      Sex     Age Height Weight Team  NOC   Games City  Sport Event
   <int> <chr>     <chr> <int>  <int>  <dbl> <chr> <chr> <chr> <chr> <chr> <chr>
 1     1 A Dijiang M        24    180     80 China CHN   1992… Barc… Bask… Bask…
 2     2 A Lamusi  M        23    170     60 China CHN   2012… Lond… Judo  Judo…
 3     3 Gunnar N… M        24     NA     NA Denm… DEN   1920… Antw… Foot… Foot…
 4     4 Edgar Li… M        34     NA     NA Denm… DEN   1900… Paris Tug-… Tug-…
 5     5 Christin… F        21    185     82 Neth… NED   1988… Calg… Spee… Spee…
 6     5 Christin… F        21    185     82 Neth… NED   1988… Calg… Spee… Spee…
 7     5 Christin… F        25    185     82 Neth… NED   1992… Albe… Spee… Spee…
 8     5 Christin… F        25    185     82 Neth… NED   1992… Albe… Spee… Spee…
 9     5 Christin… F        27    185     82 Neth… NED   1994… Lill… Spee… Spee…
10     5 Christin… F        27    185     82 Neth… NED   1994… Lill… Spee… Spee…
# ℹ 2,427,569 more rows
# ℹ 1 more variable: Medal <chr>
Dans les questions suivantes, utilisez en priorité les fonctions des packages dplyr, tidyr.

dplyr, tidyr

Dans les questions suivantes, utilisez en priorité les fonctions des packages dplyr, tidyr.

Question 8

Convertissez la colonne Sex en variable catégorielle avec la fonction mutate

tibbleresultat <- tibbleresultat|> 
  mutate(Sex = as.factor(Sex))
print(tibbleresultat)

# A tibble: 2,427,579 × 13
      ID Name      Sex     Age Height Weight Team  NOC   Games City  Sport Event
   <int> <chr>     <fct> <int>  <int>  <dbl> <chr> <chr> <chr> <chr> <chr> <chr>
 1     1 A Dijiang M        24    180     80 China CHN   1992… Barc… Bask… Bask…
 2     2 A Lamusi  M        23    170     60 China CHN   2012… Lond… Judo  Judo…
 3     3 Gunnar N… M        24     NA     NA Denm… DEN   1920… Antw… Foot… Foot…
 4     4 Edgar Li… M        34     NA     NA Denm… DEN   1900… Paris Tug-… Tug-…
 5     5 Christin… F        21    185     82 Neth… NED   1988… Calg… Spee… Spee…
 6     5 Christin… F        21    185     82 Neth… NED   1988… Calg… Spee… Spee…
 7     5 Christin… F        25    185     82 Neth… NED   1992… Albe… Spee… Spee…
 8     5 Christin… F        25    185     82 Neth… NED   1992… Albe… Spee… Spee…
 9     5 Christin… F        27    185     82 Neth… NED   1994… Lill… Spee… Spee…
10     5 Christin… F        27    185     82 Neth… NED   1994… Lill… Spee… Spee…
# ℹ 2,427,569 more rows
# ℹ 1 more variable: Medal <chr>
…
La colonne Sex a bien été convertie en variable catégorielle.

Question 9

Créez deux colonnes à partir de la colonne Games. La première colonne Year sera une colonne de type integer contenant l’année des jeux. La deuxième colonne isSummer sera une colonne booléenne qui indiquera si les jeux sont des jeux d’été ou d’hiver. Vous pourrez utiliser la fonction separate_wider_delim de tidyr notamment

tibbleresultat <- tibbleresultat |> 
  separate(Games, into = c("Year", "isSummer"), sep = " ", convert = TRUE)
print(tibbleresultat)

# A tibble: 2,427,579 × 14
      ID Name   Sex     Age Height Weight Team  NOC    Year isSummer City  Sport
   <int> <chr>  <fct> <int>  <int>  <dbl> <chr> <chr> <int> <chr>    <chr> <chr>
 1     1 A Dij… M        24    180     80 China CHN    1992 Summer   Barc… Bask…
 2     2 A Lam… M        23    170     60 China CHN    2012 Summer   Lond… Judo 
 3     3 Gunna… M        24     NA     NA Denm… DEN    1920 Summer   Antw… Foot…
 4     4 Edgar… M        34     NA     NA Denm… DEN    1900 Summer   Paris Tug-…
 5     5 Chris… F        21    185     82 Neth… NED    1988 Winter   Calg… Spee…
 6     5 Chris… F        21    185     82 Neth… NED    1988 Winter   Calg… Spee…
 7     5 Chris… F        25    185     82 Neth… NED    1992 Winter   Albe… Spee…
 8     5 Chris… F        25    185     82 Neth… NED    1992 Winter   Albe… Spee…
 9     5 Chris… F        27    185     82 Neth… NED    1994 Winter   Lill… Spee…
10     5 Chris… F        27    185     82 Neth… NED    1994 Winter   Lill… Spee…
# ℹ 2,427,569 more rows
# ℹ 2 more variables: Event <chr>, Medal <chr>

tibbleresultat

# A tibble: 2,427,579 × 14
      ID Name   Sex     Age Height Weight Team  NOC    Year isSummer City  Sport
   <int> <chr>  <fct> <int>  <int>  <dbl> <chr> <chr> <int> <chr>    <chr> <chr>
 1     1 A Dij… M        24    180     80 China CHN    1992 Summer   Barc… Bask…
 2     2 A Lam… M        23    170     60 China CHN    2012 Summer   Lond… Judo 
 3     3 Gunna… M        24     NA     NA Denm… DEN    1920 Summer   Antw… Foot…
 4     4 Edgar… M        34     NA     NA Denm… DEN    1900 Summer   Paris Tug-…
 5     5 Chris… F        21    185     82 Neth… NED    1988 Winter   Calg… Spee…
 6     5 Chris… F        21    185     82 Neth… NED    1988 Winter   Calg… Spee…
 7     5 Chris… F        25    185     82 Neth… NED    1992 Winter   Albe… Spee…
 8     5 Chris… F        25    185     82 Neth… NED    1992 Winter   Albe… Spee…
 9     5 Chris… F        27    185     82 Neth… NED    1994 Winter   Lill… Spee…
10     5 Chris… F        27    185     82 Neth… NED    1994 Winter   Lill… Spee…
# ℹ 2,427,569 more rows
# ℹ 2 more variables: Event <chr>, Medal <chr>

Les colonnes Year et isSummer ont bien été crées.

Les questions suivantes nécessitent l’application de plusieurs instructions en séquence. Essayez tant que possible de chaîner les instructions avec des pipes (%>% ou |>).

Question 10

Calculez la moyenne d’age des athletes pour chacune des éditions des JO d’été. Quelle édition a compté les athlètes les plus jeunes ? Les plus vieux ?

Moyenne_age <- tibbleresultat |> 
  group_by(Year) |> 
  summarise(moyenne_age = mean(Age, na.rm = TRUE))
print(Moyenne_age)

# A tibble: 35 × 2
    Year moyenne_age
   <int>       <dbl>
 1  1896        23.6
 2  1900        28.9
 3  1904        26.7
 4  1906        27.1
 5  1908        27.0
 6  1912        27.5
 7  1920        29.3
 8  1924        28.0
 9  1928        27.9
10  1932        29.6
# ℹ 25 more rows
…
