my_blog - Exercices - Semaine 2️⃣
…
Lancez la commande suivante :

list_tables <- session(“https://fr.wikipedia.org/wiki/Liste_des_m%C3%A9daill%C3%A9s_olympiques”)) |> html_elements(”.wikitable”) |> html_table()

Que s’est-il passé ? Que contient l’objet list_tables ?

list_tables <-
  session("https://fr.wikipedia.org/wiki/Liste_des_m%C3%A9daill%C3%A9s_olympiques") |>
  html_elements(".wikitable") |>
  html_table()

list_tables # A tibble: 24 × 11

[[1]]
# A tibble: 31 × 11
   Discipline   Discipline   Années `Nombre de` `Nombre de` `médailles décernés`
   <chr>        <chr>        <chr>  <chr>       <chr>       <chr>               
 1 "Discipline" Discipline   Années Éditions    Épreuves(e… Or                  
 2 ""           Athlétisme   Depui… 29          48          1028                
 3 ""           Aviron       Depui… 28          14          269                 
 4 ""           Badminton    Depui… 8           5           39                  
 5 ""           Basket-ball  Depui… 20          4           32                  
 6 ""           Boxe         1904,… 26          13          266                 
 7 ""           Canoë-kayak  Depui… 20          16          242                 
 8 ""           Cyclisme(ho… Depui… 29          22          263                 
 9 ""           Équitation   1900,… 26          6           151                 
10 ""           Escrime      Depui… 29          12          223                 
# ℹ 21 more rows
# ℹ 5 more variables: `médailles décernés` <chr>, `médailles décernés` <chr>,
#   `médailles décernés` <chr>,
#   `Athlète(s) avec le plus de médailles (Or-Argent-Bronze)` <chr>,
#   `Athlète(s) avec le plus de médailles d'or` <chr>
…
[[4]]
# A tibble: 2 × 8
  Discipline   Discipline        Années `Nombre d'éditions` `Médailles décernés`
  <chr>        <chr>             <chr>  <chr>               <chr>               
1 "Discipline" Discipline        Années Nombre d'éditions   Or                  
2 ""           Patrouille milit… 1924   1                   1                   
# ℹ 3 more variables: `Médailles décernés` <chr>, `Médailles décernés` <chr>,
#   `Médailles décernés` <chr>

[[5]]
# A tibble: 30 × 11
   Jeux  Médaille  Médaille Hôte     Nombred'épreuves(ave…¹ `Médailles décernés`
   <chr> <chr>     <chr>    <chr>    <chr>                  <chr>               
 1 Jeux  Médaille  Médaille Hôte     Nombred'épreuves(avec… Or                  
 2 1896  médaillés tableau  Athènes… 43                     43                  
 3 1900  médaillés tableau  Paris, … 95                     90                  
 4 1904  médaillés tableau  Saint-L… 91                     96                  
 5 1908  médaillés tableau  Londres… 110                    110                 
 6 1912  médaillés tableau  Stockho… 102                    103                 
 7 1920  médaillés tableau  Anvers,… 154                    156                 
 8 1924  médaillés tableau  Paris, … 126                    126                 
 9 1928  médaillés tableau  Amsterd… 109                    111                 
10 1932  médaillés tableau  Los Ang… 117                    116                 
# ℹ 20 more rows
# ℹ abbreviated name: ¹​`Nombred'épreuves(avec médailles)`
# ℹ 5 more variables: `Médailles décernés` <chr>, `Médailles décernés` <chr>,
#   `Médailles décernés` <chr>,
#   `Athlète(s) avec le plus de médailles (Or-Argent-Bronze)` <chr>,
#   `Athlète(s) avec le plus de médailles d'or` <chr>

[[6]]
# A tibble: 24 × 11
   Jeux  Médaille  Médaille Hôte     Nombred'épreuves(ave…¹ `Médailles décernés`
   <chr> <chr>     <chr>    <chr>    <chr>                  <chr>               
 1 Jeux  Médaille  Médaille Hôte     Nombred'épreuves(avec… Or                  
 2 1924  médaillés tableau  Chamoni… 16                     16                  
 3 1928  médaillés tableau  Saint-M… 14                     14                  
 4 1932  médaillés tableau  Lake Pl… 14                     14                  
 5 1936  médaillés tableau  Garmisc… 17                     17                  
 6 1948  médaillés tableau  Saint-M… 22                     22                  
 7 1952  médaillés tableau  Oslo, N… 22                     22                  
 8 1956  médaillés tableau  Cortina… 24                     25                  
 9 1960  médaillés tableau  Squaw V… 27                     28                  
10 1964  médaillés tableau  Innsbru… 34                     34                  
# ℹ 14 more rows
# ℹ abbreviated name: ¹​`Nombred'épreuves(avec médailles)`
# ℹ 5 more variables: `Médailles décernés` <chr>, `Médailles décernés` <chr>,
#   `Médailles décernés` <chr>,
#   `Athlète(s) avec le plus de médailles (Or-Argent-Bronze)` <chr>,
#   `Athlète(s) avec le plus de médailles d'or` <chr>
…
Le code a réussi à extraire les tables HTML de la page Wikipédia et les a stocker dans la variable list_tables qui apparait dans l’nevironnement R Studio.

L’objet list_tables contient 6 tables différentes de dimensions différentes.

Question 2

Nous allons tout d’abord nous intéresser à la première table. Créez un objet intitulé data_medailles_sport_ete contenant le premier élément de list_tables. La table n’est pas bien formattée. Supprimez la première colonne, les noms de colonnes et la première ligne. Renommez les colonnes en c(“Discipline”, “Annees”, “Editions”, “Epreuves_2020”, “Or”, “Argent”, “Bronze”, “Total”, “Athletes_medailles”, “Athletes_or”). Les colonnes Editions, Epreuves_2020, Or, Argent, Bronze, Total seront converties en colonnes d’entiers.

Création de l’objet intitulé data_medailles_sport_ete

data_medailles_sport_ete<- list_tables[[1]]
print(data_medailles_sport_ete)

# A tibble: 31 × 11
   Discipline   Discipline   Années `Nombre de` `Nombre de` `médailles décernés`
   <chr>        <chr>        <chr>  <chr>       <chr>       <chr>               
 1 "Discipline" Discipline   Années Éditions    Épreuves(e… Or                  
 2 ""           Athlétisme   Depui… 29          48          1028                
 3 ""           Aviron       Depui… 28          14          269                 
 4 ""           Badminton    Depui… 8           5           39                  
 5 ""           Basket-ball  Depui… 20          4           32                  
 6 ""           Boxe         1904,… 26          13          266                 
 7 ""           Canoë-kayak  Depui… 20          16          242                 
 8 ""           Cyclisme(ho… Depui… 29          22          263                 
 9 ""           Équitation   1900,… 26          6           151                 
10 ""           Escrime      Depui… 29          12          223                 
# ℹ 21 more rows
# ℹ 5 more variables: `médailles décernés` <chr>, `médailles décernés` <chr>,
#   `médailles décernés` <chr>,
#   `Athlète(s) avec le plus de médailles (Or-Argent-Bronze)` <chr>,
#   `Athlète(s) avec le plus de médailles d'or` <chr>
…
méthode 2

cols_a_convertir <- c("Editions", "Epreuves_2020", "Or", "Argent", "Bronze", "Total")

data_medailles_sport_ete[cols_a_convertir] <- lapply(data_medailles_sport_ete[cols_a_convertir], as.integer)

print(data_medailles_sport_ete)

# A tibble: 30 × 10
   Discipline            Annees Editions Epreuves_2020    Or Argent Bronze Total
   <chr>                 <chr>     <int>         <int> <int>  <int>  <int> <int>
 1 Athlétisme            Depui…       29            48  1028   1030   1027  3085
 2 Aviron                Depui…       28            14   269    268    273   810
 3 Badminton             Depui…        8             5    39     39     43   121
 4 Basket-ball           Depui…       20             4    32     32     32    96
 5 Boxe                  1904,…       26            13   266    266    472  1004
 6 Canoë-kayak           Depui…       20            16   242    241    243   726
 7 Cyclisme(hommes, fem… Depui…       29            22   263    261    260   784
 8 Équitation            1900,…       26             6   151    149    148   448
 9 Escrime               Depui…       29            12   223    223    221   667
10 Football              1900–…       27             2    34     34     35   103
# ℹ 20 more rows
# ℹ 2 more variables: Athletes_medailles <chr>, Athletes_or <chr>
…
